Chapter 4 Classification | A Tidy Introduction To Statistical Learning
…
4.7.2 Logistic Regression

Let’s run a logistic regression to predict churn using the available variables.

Unlike ISLR, we will use the parsnip::logistic_reg function over glm due to its API design and machine learning workflow provided by its parent package, tidymodels. Models in the {parsnip} package also allow for choice of different computational engines. This reduces cognitive overhead by standardizing the high-level arguments for training a model without rembembering the specifications of different engine. In our case, we will be using the glm engine.

logistic_reg() is a way to generate a specification of a model before fitting and allows the model to be created using different packages in R, Stan, keras, or via Spark.

logi_churn <- logistic_reg(mode = "classification") %>%
  fit(data = train_churn, churn ~ .)
broom::tidy(logi_churn) %>% arrange(p.value)

## # A tibble: 24 x 5
##   term                estimate std.error statistic  p.value
##   <chr>                  <dbl>     <dbl>     <dbl>    <dbl>
## 1 tenure             -0.0558   0.00702       -7.95 1.81e-15
## 2 contractTwo year   -1.42     0.206         -6.87 6.48e-12
## 3 contractOne year   -0.655    0.126         -5.21 1.88e- 7
## 4 paperless_billing   0.397    0.0859         4.62 3.87e- 6
## 5 total_charges       0.000288 0.0000800      3.59 3.26e- 4
## 6 online_securityYes -0.533    0.208         -2.56 1.05e- 2
## # … with 18 more rows
…
We will be using kap to evaluate how our logistic regression fits to other techniques.

4.7.3 Linear discriminant analysis

set.seed(40)
lda_churn <- discrim_linear() %>%
  fit(data = train_churn, churn ~ .)

Calling the parsnip:: model object gives us information about the model fit. We can see the prior probabilities as well as the coefficients of linear discriminants. These provide the linear combination of the variables used to create the decision rule. If the combination is large, the model will predict an increase.

lda_churn$fit$scaling %>%
  as_tibble(rownames = "term") %>%
  arrange(LD1)

## # A tibble: 30 x 2
##   term                  LD1
##   <chr>               <dbl>
## 1 contractOne year   -0.519
## 2 online_securityYes -0.422
## 3 contractTwo year   -0.362
## 4 tech_supportYes    -0.285
## 5 phone_service      -0.220
## 6 online_backupYes   -0.209
## # … with 24 more rows
…
