Chapter 3 Linear Regression | A Tidy Introduction To Statistical Learning
…
Even if we knew \(f(X)\), we still have random error \(\epsilon\), which is the irreducible error. We can use prediction intervals to estimate how far \(Y\) will differ from \(\hat Y\). These will always be larger than confidence intervals, because they incorporate both the reducible + irreducible error.

3.3.3 Other Considerations in the Regression Model

So far, all predictors have been quantitative. However, it is common to have qualitative variables as well.

Take a look at the ISLR::Credit dataset, which has a mix of both types.

tidy_credit <- ISLR::Credit %>%
  as_tibble() %>%
  janitor::clean_names()
tidy_credit

## # A tibble: 400 x 12
##      id income limit rating cards   age education gender student married
##   <int>  <dbl> <int>  <int> <int> <int>     <int> <fct>  <fct>   <fct>  
## 1     1   14.9  3606    283     2    34        11 " Mal… No      Yes    
## 2     2  106.   6645    483     3    82        15 Female Yes     Yes    
## 3     3  105.   7075    514     4    71        11 " Mal… No      No     
## 4     4  149.   9504    681     3    36        11 Female No      No     
## 5     5   55.9  4897    357     2    68        16 " Mal… No      Yes    
## 6     6   80.2  8047    569     4    77        10 " Mal… No      No     
## # … with 394 more rows, and 2 more variables: ethnicity <fct>,
## #   balance <int>
…
fastDummies package will be used to generate these. In this case, African American serves as the baseline, and dummy variables are created for Caucasian and Asian. There will always be one fewer dummy variable than the number of levels.

tidy_credit_dummy <- tidy_credit %>%
  fastDummies::dummy_cols(select_columns = "ethnicity", remove_first_dummy = TRUE) %>%
  janitor::clean_names()

tidy_credit_dummy %>%
  select(starts_with("ethnicity"))

## # A tibble: 400 x 3
##   ethnicity ethnicity_asian ethnicity_caucasian
##   <fct>               <int>               <int>
## 1 Caucasian               0                   1
## 2 Asian                   1                   0
## 3 Asian                   1                   0
## 4 Asian                   1                   0
## 5 Caucasian               0                   1
## 6 Caucasian               0                   1
## # … with 394 more rows
…
