Chapter 6 Linear Model Selection And Regularization | A Tidy Introduction To Statistical Learning
…
wf <- workflow() %>%
  add_recipe(ridge_rec)

ridge_fit <- wf %>%
  add_model(ridge_spec) %>%
  fit(data = credit_train)

# workflow
ridge_fit %>% 
  pull_workflow_fit() %>%
  tidy()

## # A tibble: 1,200 x 5
##   term         step  estimate  lambda dev.ratio
##   <chr>       <dbl>     <dbl>   <dbl>     <dbl>
## 1 (Intercept)     1  5.21e+ 2 400049.  3.60e-36
## 2 income          1  2.19e-34 400049.  3.60e-36
## 3 limit           1  4.04e-34 400049.  3.60e-36
## 4 rating          1  4.05e-34 400049.  3.60e-36
## 5 cards           1  5.77e-35 400049.  3.60e-36
## 6 age             1 -6.15e-38 400049.  3.60e-36
## # … with 1,194 more rows
…
