Chapter 2 Statistical Learning | A Tidy Introduction To Statistical Learning
…
tmp <- tempfile()
write_tsv(generic_company_tibble, tmp)
company_data <- read_tsv(tmp)

readr provides a nice summary of the imported tibble. Calling the tibble by name will also give a breakdown of column names, data types, and number of observations.

company_data

## # A tibble: 100 x 3
##       x     y z        
##   <dbl> <dbl> <chr>    
## 1  25.6  50.2 microsoft
## 2  25.8  49.9 microsoft
## 3  25.9  49.6 microsoft
## 4  26.3  48.1 microsoft
## 5  25.7  51.0 microsoft
## 6  24.1  50.2 microsoft
## # … with 94 more rows
…
